{
	"materials": [
		{
			"name": "Кожа",
			"price": 500,
			"colors": [
				{
					"name": "Черный",
					"hex": "#000"
				},
				{
					"name": "Коричневый",
					"hex": "#513737"
				}
			]
		},
		{
			"name": "Кожа (заменитель)",
			"price": 300,
			"colors": [
				{
					"name": "Черный",
					"hex": "#000"
				},
				{
					"name": "Белый",
					"hex": "#fff"
				},
				{
					"name": "Коричневый",
					"hex": "#513737"
				}
			]
		},
		{
			"name": "Каучук",
			"price": 200,
			"colors": [
				{
					"name": "Коричневый",
					"hex": "#513737"
				}
			]
		},
		{
			"name": "Ткань",
			"price": 100,
			"colors": [
				{
					"name": "Черный",
					"hex": "#000"
				},
				{
					"name": "Белый",
					"hex": "#fff"
				},
				{
					"name": "Коричневый",
					"hex": "#513737"
				},
				{
					"name": "Розовый",
					"hex": "#ff8a8a"
				},
				{
					"name": "Зеленый",
					"hex": "#1f9a44"
				}
			]
		}
	],
	"pendants": [
		{
			"name": "Нет",
			"price": 0
		},
		{
			"name": "Самолёт",
			"price": 100
		},
		{
			"name": "Микрофон",
			"price": 150
		},
		{
			"name": "Звезда",
			"price": 250
		}
	],
	"deliveryWays": [
		{
			"name": "Курьер",
			"value": "courier",
			"price": 500
		},
		{
			"name": "Почта России",
			"value": "russianpost",
			"price": 200
		},
		{
			"name": "EMS",
			"value": "ems",
			"price": 300
		},
		{
			"name": "DPD",
			"value": "dpd",
			"price": 400
		}
	],
	"paymentWays": [
		{
			"name": "Банковской картой",
			"value": "card"
		},
		{
			"name": "Наличные/терминал курьеру",
			"value": "cash"
		},
		{
			"name": "Я.Деньги",
			"value": "yamoney"
		},
		{
			"name": "QIWI-кошелёк",
			"value": "qiwi"
		}
	]
}
