<?xml version="1.0" encoding="UTF-8" standalone="no"?>
<svg width="20px" height="22px" viewBox="0 0 20 22" version="1.1" xmlns="http://www.w3.org/2000/svg" xmlns:xlink="http://www.w3.org/1999/xlink">
    <!-- Generator: Sketch 3.7.2 (28276) - http://www.bohemiancoding.com/sketch -->
    <title>Combined Shape</title>
    <desc>Created with Sketch.</desc>
    <defs></defs>
    <g id="Index" stroke="none" stroke-width="1" fill="none" fill-rule="evenodd">
        <g id="Constructor" transform="translate(-923.000000, -650.000000)" fill="#FFFFFF">
            <g id="Field-(Checkout)" transform="translate(772.000000, 636.000000)">
                <g id="Checkout">
                    <path d="M160,33.0769231 L160,36 L170.833333,25 L160,14 L160,17 L151,17 L151,33.0769231 L160,33.0769231 Z" id="Combined-Shape"></path>
                </g>
            </g>
        </g>
    </g>
</svg>